{
  "code": 200,
  "message": "成功",
  "data": {
    "trademarkList": [
      {
        "tmId": 1,
        "tmName": "小米"
      },
      {
        "tmId": 2,
        "tmName": "苹果"
      },
      {
        "tmId": 3,
        "tmName": "华为"
      },
      {
        "tmId": 6,
        "tmName": "VIVO"
      },
      {
        "tmId": 390167,
        "tmName": "关雨璇"
      },
      {
        "tmId": 392405,
        "tmName": "二次元223"
      }
    ],
    "attrsList": [
      {
        "attrId": 23,
        "attrValueList": [
          "4G",
          "8G",
          "6G"
        ],
        "attrName": "运行内存"
      },
      {
        "attrId": 24,
        "attrValueList": [
          "128G",
          "256G",
          "64G"
        ],
        "attrName": "机身内存"
      },
      {
        "attrId": 106,
        "attrValueList": [
          "安卓手机",
          "苹果手机"
        ],
        "attrName": "手机一级"
      },
      {
        "attrId": 107,
        "attrValueList": [
          "小米",
          "苹果",
          "华为"
        ],
        "attrName": "二级手机"
      },
      {
        "attrId": 111,
        "attrValueList": [
          "骁龙439"
        ],
        "attrName": "CPU型号"
      },
      {
        "attrId": 112,
        "attrValueList": [
          "6.0-6.24英寸"
        ],
        "attrName": "屏幕尺寸"
      },
      {
        "attrId": 13293,
        "attrValueList": [
          "绿色"
        ],
        "attrName": "颜色"
      },
      {
        "attrId": 13319,
        "attrValueList": [
          "4Mk屏"
        ],
        "attrName": "菠萝手机"
      },
      {
        "attrId": 13359,
        "attrValueList": [
          "iOS"
        ],
        "attrName": "操作系统"
      },
      {
        "attrId": 13401,
        "attrValueList": [
          "你好"
        ],
        "attrName": "你好不好"
      }
    ],
    "goodsList": [
      {
        "id": 2,
        "defaultImg": "http://47.93.148.192:8080/group1/M00/00/01/rBHu8l-rfvmAcbl2AAFopp2WGBQ404.jpg",
        "title": "小米10 至尊纪念版 双模5G 骁龙865 120HZ高刷新率 120倍长焦镜头 120W快充 12GB+256GB 陶瓷黑 游戏手机",
        "price": 6999.0,
        "createTime": null,
        "tmId": null,
        "tmName": null,
        "category1Id": null,
        "category1Name": null,
        "category2Id": null,
        "category2Name": null,
        "category3Id": null,
        "category3Name": null,
        "hotScore": 0,
        "attrs": null
      },
      {
        "id": 4,
        "defaultImg": "http://47.93.148.192:8080/group1/M00/00/01/rBHu8l-rgJqAHPnoAAF9hoDNfsc505.jpg",
        "title": "Redmi 10X 4G Helio G85游戏芯 4800万超清四摄 5020mAh大电量 小孔全面屏 128GB大存储 4GB+128GB 冰雾白 游戏智能手机 小米 红米",
        "price": 999.0,
        "createTime": null,
        "tmId": null,
        "tmName": null,
        "category1Id": null,
        "category1Name": null,
        "category2Id": null,
        "category2Name": null,
        "category3Id": null,
        "category3Name": null,
        "hotScore": 0,
        "attrs": null
      },
      {
        "id": 13,
        "defaultImg": "http://47.93.148.192:8080/group1/M00/00/02/rBHu8l-sklaALrngAAHGDqdpFtU741.jpg",
        "title": "华为 HUAWEI P40 麒麟990 5G SoC芯片 5000万超感知徕卡三摄 30倍数字变焦 6GB+128GB亮黑色全网通5G手机",
        "price": 4188.0,
        "createTime": null,
        "tmId": null,
        "tmName": null,
        "category1Id": null,
        "category1Name": null,
        "category2Id": null,
        "category2Name": null,
        "category3Id": null,
        "category3Name": null,
        "hotScore": 0,
        "attrs": null
      },
      {
        "id": 12,
        "defaultImg": "http://47.93.148.192:8080/group1/M00/00/02/rBHu8l-rgfWAVRWzAABUiOmA0ic932.jpg",
        "title": "Apple iPhone 12 (A2404) 128GB 黑色 支持移动联通电信5G 双卡双待手机",
        "price": 9197.0,
        "createTime": null,
        "tmId": null,
        "tmName": null,
        "category1Id": null,
        "category1Name": null,
        "category2Id": null,
        "category2Name": null,
        "category3Id": null,
        "category3Name": null,
        "hotScore": 0,
        "attrs": null
      },
      {
        "id": 11,
        "defaultImg": "http://47.93.148.192:8080/group1/M00/00/02/rBHu8l-rgfWASR1YAADsOUYB-2g312.jpg",
        "title": "Apple iPhone 12 (A2404) 64GB 白色 支持移动联通电信5G 双卡双待手机",
        "price": 8197.0,
        "createTime": null,
        "tmId": null,
        "tmName": null,
        "category1Id": null,
        "category1Name": null,
        "category2Id": null,
        "category2Name": null,
        "category3Id": null,
        "category3Name": null,
        "hotScore": 0,
        "attrs": null
      },
      {
        "id": 15,
        "defaultImg": "http://47.93.148.192:8080/group1/M00/00/02/rBHu8l-sklaAbYPbAAHJf20K7J4980.jpg",
        "title": "华为 HUAWEI P40 麒麟990 5G SoC芯片 5000万超感知徕卡三摄 30倍数字变焦 8GB+128GB冰霜银全网通5G手机",
        "price": 4488.0,
        "createTime": null,
        "tmId": null,
        "tmName": null,
        "category1Id": null,
        "category1Name": null,
        "category2Id": null,
        "category2Name": null,
        "category3Id": null,
        "category3Name": null,
        "hotScore": 0,
        "attrs": null
      },
      {
        "id": 2653,
        "defaultImg": "http://139.198.127.41:9000/sph/20220720/s1.jpg",
        "title": "。。。",
        "price": 0.0,
        "createTime": null,
        "tmId": null,
        "tmName": null,
        "category1Id": null,
        "category1Name": null,
        "category2Id": null,
        "category2Name": null,
        "category3Id": null,
        "category3Name": null,
        "hotScore": 0,
        "attrs": null
      },
      {
        "id": 1,
        "defaultImg": "http://47.93.148.192:8080/group1/M00/00/01/rBHu8l-rfvmAIpgZAAIvrX6L9fo612.jpg",
        "title": "小米10 至尊纪念版 双模5G 骁龙865 120HZ高刷新率 120倍长焦镜头 120W快充 8GB+128GB 陶瓷黑 游戏手机",
        "price": 5999.0,
        "createTime": null,
        "tmId": null,
        "tmName": null,
        "category1Id": null,
        "category1Name": null,
        "category2Id": null,
        "category2Name": null,
        "category3Id": null,
        "category3Name": null,
        "hotScore": 0,
        "attrs": null
      },
      {
        "id": 7,
        "defaultImg": "http://47.93.148.192:8080/group1/M00/00/01/rBHu8l-rgJqAHPnoAAF9hoDNfsc505.jpg",
        "title": "Redmi 10X 4G Helio G85游戏芯 4800万超清四摄 5020mAh大电量 小孔全面屏 128GB大存储 8GB+128GB 明月灰 游戏智能手机 小米 红米",
        "price": 1299.0,
        "createTime": null,
        "tmId": null,
        "tmName": null,
        "category1Id": null,
        "category1Name": null,
        "category2Id": null,
        "category2Name": null,
        "category3Id": null,
        "category3Name": null,
        "hotScore": 0,
        "attrs": null
      },
      {
        "id": 8,
        "defaultImg": "http://47.93.148.192:8080/group1/M00/00/02/rBHu8l-rgfWAVRWzAABUiOmA0ic932.jpg",
        "title": "Apple iPhone 12 (A2404) 64GB 黑色 支持移动联通电信5G 双卡双待手机",
        "price": 8197.0,
        "createTime": null,
        "tmId": null,
        "tmName": null,
        "category1Id": null,
        "category1Name": null,
        "category2Id": null,
        "category2Name": null,
        "category3Id": null,
        "category3Name": null,
        "hotScore": 0,
        "attrs": null
      }
    ],
    "total": 19,
    "pageSize": 10,
    "pageNo": 1,
    "totalPages": 2
  },
  "ok": true
}